…
    #9. Часто вредоносное программное обеспечение использует DNS канал в качестве канала управления, периодически отправляя запросы на подконтрольный злоумышленникам DNS сервер. По периодическим запросам на один и тот же домен можно выявить скрытый DNS канал. Есть ли такие IP адреса в исследуемом датасете?

    library(dplyr)
    dns.4<-data.frame(dns$ip_host,dns$query)
    names(dns.4)[names(dns.4) == 'dns.ip_host'] <- 'ip_host'
    names(dns.4)[names(dns.4) == 'dns.query'] <- 'query'

    dns.4%>%group_by(dns.4$query)

    ## # A tibble: 428,292 × 3
    ## # Groups:   dns.4$query [5,176]
    ##    ip_host        query                                                  dns.4…¹
    ##    <chr>          <chr>                                                  <chr>  
    ##  1 192.168.202.76 "HPE8AA67"                                             "HPE8A…
    ##  2 192.168.202.76 "HPE8AA67"                                             "HPE8A…
    ##  3 192.168.202.76 "HPE8AA67"                                             "HPE8A…
    ##  4 192.168.202.76 "WPAD"                                                 "WPAD" 
    ##  5 192.168.202.76 "WPAD"                                                 "WPAD" 
    ##  6 192.168.202.76 "WPAD"                                                 "WPAD" 
    ##  7 192.168.202.89 "EWREP1"                                               "EWREP…
    ##  8 192.168.202.89 "EWREP1"                                               "EWREP…
    ##  9 192.168.202.89 "EWREP1"                                               "EWREP…
    ## 10 192.168.202.89 "*\\x00\\x00\\x00\\x00\\x00\\x00\\x00\\x00\\x00\\x00\… "*\\x0…
    ## # … with 428,282 more rows, and abbreviated variable name ¹​`dns.4$query`
…
